{
    "data": [
        {
            "permission_uuid": "AB84D679-23DA-4253-BAD4-0C2BB01C0E35",
            "permission_name": "App.Soundblock.Service.Project.Create",
            "permission_memo": "App.Soundblock.Service.Project.Create",
            "stamp_created": 1582659748,
            "stamp_created_by": "238950B3-2F95-44F2-B30D-B45F04557FB3",
            "stamp_updated": 1582659748,
            "stamp_updated_by": "3698FB72-A5D2-4E24-9C50-48BC2415C636"
        },
        {
            "permission_uuid": "196340E6-DD8B-4815-9BDB-1B120E265D63",
            "permission_name": "App.Soundblock.Service.Project.Deploy",
            "permission_memo": "App.Soundblock.Service.Project.Deploy",
            "stamp_created": 1582659748,
            "stamp_created_by": "238950B3-2F95-44F2-B30D-B45F04557FB3",
            "stamp_updated": 1582659748,
            "stamp_updated_by": "3698FB72-A5D2-4E24-9C50-48BC2415C636"
        },
        {
            "permission_uuid": "E93F6F62-BF22-4E08-B271-F89AA0EC42F4",
            "permission_name": "App.Soundblock.Service.Storage.Simple",
            "permission_memo": "App.Soundblock.Service.Storage.Simple",
            "stamp_created": 1582659748,
            "stamp_created_by": "238950B3-2F95-44F2-B30D-B45F04557FB3",
            "stamp_updated": 1582659748,
            "stamp_updated_by": "3698FB72-A5D2-4E24-9C50-48BC2415C636"
        },
        {
            "permission_uuid": "F0DC3F36-D9DA-4829-9437-7CFE8002DC62",
            "permission_name": "App.Soundblock.Service.Storage.Smart",
            "permission_memo": "App.Soundblock.Service.Storage.Smart",
            "stamp_created": 1582659748,
            "stamp_created_by": "238950B3-2F95-44F2-B30D-B45F04557FB3",
            "stamp_updated": 1582659748,
            "stamp_updated_by": "3698FB72-A5D2-4E24-9C50-48BC2415C636"
        },
        {
            "permission_uuid": "7E433E62-989C-489A-A006-972FF7F8DC99",
            "permission_name": "App.Soundblock.Service.Report.Payments",
            "permission_memo": "App.Soundblock.Service.Report.Payments",
            "stamp_created": 1582659748,
            "stamp_created_by": "238950B3-2F95-44F2-B30D-B45F04557FB3",
            "stamp_updated": 1582659748,
            "stamp_updated_by": "3698FB72-A5D2-4E24-9C50-48BC2415C636"
        },
        {
            "permission_uuid": "BE84FBC9-BE80-4540-88E6-1FAAC87790FC",
            "permission_name": "App.Soundblock.Project.Member.Create",
            "permission_memo": "App.Soundblock.Project.Member.Create",
            "stamp_created": 1582659748,
            "stamp_created_by": "238950B3-2F95-44F2-B30D-B45F04557FB3",
            "stamp_updated": 1582659748,
            "stamp_updated_by": "3698FB72-A5D2-4E24-9C50-48BC2415C636"
        },
        {
            "permission_uuid": "E6B089EA-D3C0-41A0-990A-5E59636E4D01",
            "permission_name": "Soundblock.Project.Member.Delete",
            "permission_memo": "Soundblock.Project.Member.Delete",
            "stamp_created": 1582659748,
            "stamp_created_by": "238950B3-2F95-44F2-B30D-B45F04557FB3",
            "stamp_updated": 1582659748,
            "stamp_updated_by": "3698FB72-A5D2-4E24-9C50-48BC2415C636"
        },
        {
            "permission_uuid": "B42FDC6B-F687-48A7-9826-5016EE294BF1",
            "permission_name": "App.Soundblock.Project.Member.Permissions",
            "permission_memo": "App.Soundblock.Project.Member.Permissions",
            "stamp_created": 1582659748,
            "stamp_created_by": "238950B3-2F95-44F2-B30D-B45F04557FB3",
            "stamp_updated": 1582659748,
            "stamp_updated_by": "3698FB72-A5D2-4E24-9C50-48BC2415C636"
        },
        {
            "permission_uuid": "AE140BB6-9338-4E7E-963C-6870775F9717",
            "permission_name": "Soundblock.Project.File.Music.Add",
            "permission_memo": "Soundblock.Project.File.Music.Add",
            "stamp_created": 1582659748,
            "stamp_created_by": "238950B3-2F95-44F2-B30D-B45F04557FB3",
            "stamp_updated": 1582659748,
            "stamp_updated_by": "3698FB72-A5D2-4E24-9C50-48BC2415C636"
        },
        {
            "permission_uuid": "F023C5D3-95B7-4309-B4D1-456C024187CF",
            "permission_name": "Soundblock.Project.File.Music.Delete",
            "permission_memo": "Soundblock.Project.File.Music.Delete",
            "stamp_created": 1582659748,
            "stamp_created_by": "238950B3-2F95-44F2-B30D-B45F04557FB3",
            "stamp_updated": 1582659748,
            "stamp_updated_by": "3698FB72-A5D2-4E24-9C50-48BC2415C636"
        }
    ],
    "meta": {
        "pages": {
            "total": 29,
            "count": 10,
            "per_page": 10,
            "current_page": 1,
            "total_pages": 3,
            "links": {
                "next": "http://localhost:8000/auth/access/permissions?page=2"
            },
            "from": 1
        }
    }
}
